Determining if the pthread_create exist failed with the following output:
Change Dir: /tmp/nikhil/SPEEDTEST/build/CMakeFiles/CMakeTmp

Run Build Command:/usr/bin/gmake "cmTryCompileExec2264545597/fast"
/usr/bin/gmake -f CMakeFiles/cmTryCompileExec2264545597.dir/build.make CMakeFiles/cmTryCompileExec2264545597.dir/build
gmake[1]: Entering directory `/tmp/nikhil/SPEEDTEST/build/CMakeFiles/CMakeTmp'
/usr/bin/cmake -E cmake_progress_report /tmp/nikhil/SPEEDTEST/build/CMakeFiles/CMakeTmp/CMakeFiles 1
Building C object CMakeFiles/cmTryCompileExec2264545597.dir/CheckSymbolExists.c.o
/usr/bin/gcc    -o CMakeFiles/cmTryCompileExec2264545597.dir/CheckSymbolExists.c.o   -c /tmp/nikhil/SPEEDTEST/build/CMakeFiles/CMakeTmp/CheckSymbolExists.c
Linking C executable cmTryCompileExec2264545597
/usr/bin/cmake -E cmake_link_script CMakeFiles/cmTryCompileExec2264545597.dir/link.txt --verbose=1
/usr/bin/gcc       CMakeFiles/cmTryCompileExec2264545597.dir/CheckSymbolExists.c.o  -o cmTryCompileExec2264545597 -rdynamic 
CMakeFiles/cmTryCompileExec2264545597.dir/CheckSymbolExists.c.o: In function `main':
CheckSymbolExists.c:(.text+0x16): undefined reference to `pthread_create'
collect2: error: ld returned 1 exit status
gmake[1]: *** [cmTryCompileExec2264545597] Error 1
gmake[1]: Leaving directory `/tmp/nikhil/SPEEDTEST/build/CMakeFiles/CMakeTmp'
gmake: *** [cmTryCompileExec2264545597/fast] Error 2

File /tmp/nikhil/SPEEDTEST/build/CMakeFiles/CMakeTmp/CheckSymbolExists.c:
/* */
#include <pthread.h>

int main(int argc, char** argv)
{
  (void)argv;
#ifndef pthread_create
  return ((int*)(&pthread_create))[argc];
#else
  (void)argc;
  return 0;
#endif
}

Determining if the function pthread_create exists in the pthreads failed with the following output:
Change Dir: /tmp/nikhil/SPEEDTEST/build/CMakeFiles/CMakeTmp

Run Build Command:/usr/bin/gmake "cmTryCompileExec416190298/fast"
/usr/bin/gmake -f CMakeFiles/cmTryCompileExec416190298.dir/build.make CMakeFiles/cmTryCompileExec416190298.dir/build
gmake[1]: Entering directory `/tmp/nikhil/SPEEDTEST/build/CMakeFiles/CMakeTmp'
/usr/bin/cmake -E cmake_progress_report /tmp/nikhil/SPEEDTEST/build/CMakeFiles/CMakeTmp/CMakeFiles 1
Building C object CMakeFiles/cmTryCompileExec416190298.dir/CheckFunctionExists.c.o
/usr/bin/gcc   -DCHECK_FUNCTION_EXISTS=pthread_create   -o CMakeFiles/cmTryCompileExec416190298.dir/CheckFunctionExists.c.o   -c /usr/share/cmake/Modules/CheckFunctionExists.c
Linking C executable cmTryCompileExec416190298
/usr/bin/cmake -E cmake_link_script CMakeFiles/cmTryCompileExec416190298.dir/link.txt --verbose=1
/usr/bin/gcc   -DCHECK_FUNCTION_EXISTS=pthread_create    CMakeFiles/cmTryCompileExec416190298.dir/CheckFunctionExists.c.o  -o cmTryCompileExec416190298 -rdynamic -lpthreads 
/usr/bin/ld: cannot find -lpthreads
collect2: error: ld returned 1 exit status
gmake[1]: *** [cmTryCompileExec416190298] Error 1
gmake[1]: Leaving directory `/tmp/nikhil/SPEEDTEST/build/CMakeFiles/CMakeTmp'
gmake: *** [cmTryCompileExec416190298/fast] Error 2


